Price applied by Pediatricians
…
We can see that the doctor who applied the highest price (75 euros) and the highest extra (47 euros) lives in NIMES.

## # A tibble: 1 x 7
##    city  call_date   rdv_date diff_call_rdv price extra_price
##   <chr>     <date>     <date>         <dbl> <dbl>       <dbl>
## 1 NIMES 2012-10-04 2012-10-11             7    75          47
## # ... with 1 more variables: extra_applied <chr>

After grouping by City (result below), we can see that the average price applied is 55 euros in CERGY. We notice that some cities have just one data point (CERGY has just one data point, so we cant say that it has the highest price applied by a doctor). So, we cannot draw any conclusion about the difference in prices applied in each City.

## # A tibble: 30 x 4
##               city total avg_price avg_extra
##              <chr> <int>     <dbl>     <dbl>
##  1           CERGY     1     55.00     27.00
##  2           NIMES     3     51.67     23.67
##  3    GRASSE CEDEX     1     50.00     22.00
##  4        MAUREPAS     1     50.00     22.00
##  5        MULHOUSE     1     50.00     22.00
##  6       VITROLLES     1     50.00     22.00
##  7 MAGNY LE HONGRE     2     46.25     18.25
##  8        TOULOUSE     1     45.50     17.50
##  9      LE VESINET     1     45.00     17.00
## 10         RIXHEIM     1     45.00     17.00
## # ... with 20 more rows
…
